{
  "defaultSeverity": "error",
  "extends": "tslint:recommended",
  "jsRules": {
    "max-line-length": {
      "options": [120]
    }
  },
  "rules": {
    "max-line-length": {
      "options": [120]
    },
    "new-parens": true,
    "no-arg": true,
    "no-bitwise": true,
    "no-conditional-assignment": true,
    "no-consecutive-blank-lines": false,
    "no-console": [false, "log", "error"],
    "quotemark": [true, "single"],
    "object-literal-sort-keys": false,
    "radix": false
  }
}
